# R-Rs, Density [10^20 m^-3], Err
2.020243921887288074e-02 3.713394105434417725e-01 2.027061954140663147e-02
1.252350558583747997e-02 1.026821658015251160e-01 5.778559483587741852e-03
2.923551895713361048e-03 1.562177389860153198e-01 8.780235424637794495e-03
-2.028308061396666417e-02 2.981819957494735718e-02 4.999999888241291046e-03
-3.522436897495384578e-02 1.081739291548728943e-01 7.553678937256336212e-03
-4.853628559417844102e-02 4.160095155239105225e-01 4.584293546706017658e-02
-5.611510771052374835e-02 4.923353731632232888e-01 4.783354994965202667e-02
-6.395002723196130390e-02 5.621090650558471236e-01 5.006425168985806362e-02
-7.134589921061285089e-02 6.071537733078002930e-01 5.114789661762469963e-02
-7.963900138964152831e-02 7.237482070922851562e-01 5.885603520027240382e-02
-8.815290886922455549e-02 7.270296931266784224e-01 6.764426032839379599e-02
-9.761098257189271266e-02 6.789005398750305176e-01 3.797012974228233112e-02
-1.065427291990188596e-01 8.063322782516479936e-01 5.497299677395835887e-02
-1.249293466280674281e-01 8.498723864555358665e-01 8.920764340416569016e-02
-1.343559603936504976e-01 8.881276726722717729e-01 8.165167950115853612e-02
-1.439191971593292152e-01 8.961375117301940696e-01 8.114746928723313990e-02
-1.536058988513945289e-01 9.116498231887817383e-01 8.946997928133591793e-02
-1.623461450430172537e-01 8.801708072423934937e-01 8.653237726081684789e-02
-1.716401823817086392e-01 9.074536561965942383e-01 9.442495030732932226e-02
-1.816026832212825903e-01 8.935387134552001953e-01 1.115736429086903181e-01
-1.899551458217171307e-01 8.956861734390259011e-01 1.209392959569176029e-01
-2.000010129541545112e-01 8.961591958999634011e-01 1.145792734068094010e-01
-2.089560836702348823e-01 8.882679939270019531e-01 1.160484827135111474e-01
-2.047567369581910768e-01 8.938214302062987837e-01 1.345040619944645466e-01
-1.945922083672917413e-01 8.846485853195190652e-01 1.281252773898739206e-01
-1.854175210041584254e-01 8.992800474166869895e-01 1.232260505146802049e-01
-1.771313731966065452e-01 9.009128093719482866e-01 1.271058897297459578e-01
-1.680861849150862009e-01 8.972535133361816406e-01 1.283859482679770292e-01
-1.591338503074719579e-01 8.907350301742553711e-01 1.292019294211264602e-01
-1.502818228112596799e-01 8.861435174942016157e-01 1.389071714126950408e-01
-1.423319299448003727e-01 8.853167057037353294e-01 1.496777381856544409e-01
-1.329278027597698975e-01 8.762783050537109597e-01 1.618008316480749054e-01
-1.244480040688221711e-01 8.379938364028930442e-01 1.389516438080448946e-01
-1.161166921290577303e-01 8.162853360176086648e-01 1.555809890435611020e-01
-1.079448657568511383e-01 7.950697183609009011e-01 1.278664672880118758e-01
-9.922761351290043663e-02 7.899508118629455788e-01 1.050992982973443096e-01
-9.143064501843056746e-02 7.641633152961730957e-01 1.079495488630496242e-01
-8.315232065795563621e-02 7.549813032150268777e-01 8.262314320087148223e-02
-7.512539849806132430e-02 7.411162376403808150e-01 9.039546885893126604e-02
-6.736690265721012594e-02 6.658677577972411665e-01 7.717550805265023517e-02
-5.988955869099088503e-02 6.545120835304260032e-01 5.611381902882812966e-02
-5.270763821774204771e-02 5.901158928871155229e-01 4.007261728733805400e-02
-4.583259643985493348e-02 5.092091679573058638e-01 3.793867599301374571e-02
-3.304029856796075748e-02 3.466046988964081033e-01 2.468809850124333363e-02
-2.858273277779566079e-02 3.021017193794250377e-01 4.831972348440372045e-02
-2.546571614135029193e-02 2.397448966900507517e-01 2.816846174013796361e-02
-1.979107463213658491e-02 1.658251509070396423e-01 4.347615497420277697e-02
-1.718984402415335566e-02 1.616636410355568043e-01 3.687336396889706602e-02
-1.426087793176789020e-02 1.308394119143486134e-01 2.116267653081071662e-02
-7.246819524225234233e-03 1.335332870483398326e-01 2.895519517442114374e-02
-5.072354348936158885e-03 1.205463036894798279e-01 3.608736851328961381e-02
-3.073211326060754089e-03 1.401743143796920776e-01 1.236039258566147721e-02
-9.373038605153816150e-04 1.408210098743438721e-01 1.257478620774055492e-02
7.767082196405983296e-04 1.563162952661514282e-01 2.930533597235228209e-03
2.766805213055834045e-03 9.936211506525675918e-02 1.627370594940522400e-02
4.486450876943992583e-03 9.025093913078308105e-02 6.213006097823381424e-03
2.846515178680419922e-02 1.406222023069858551e-02 1.406222023069858681e-03
2.727448940277099609e-02 1.705121062695980072e-02 1.705121062695980115e-03
2.601730823516845703e-02 2.250354737043380737e-02 2.250354737043380737e-03
2.476680278778076172e-02 2.468004450201988220e-02 2.468004450201988307e-03
2.366280555725097656e-02 4.596905037760734558e-02 4.596905037760734732e-03
2.154803276062011719e-02 5.046114325523376465e-02 5.046114325523376465e-03
2.054202556610107422e-02 5.016406252980232239e-02 5.016406252980232412e-03
1.951014995574951172e-02 4.421498253941535950e-02 4.421498253941536470e-03
1.846897602081298828e-02 7.411896437406539917e-02 7.411896437406540090e-03
1.747798919677734375e-02 6.486385315656661987e-02 6.486385315656662161e-03
1.648330688476562500e-02 7.808303833007812500e-02 7.808303833007812847e-03
1.547694206237792969e-02 5.183370783925056458e-02 5.183370783925056458e-03
1.442730426788330078e-02 7.156697660684585571e-02 7.156697660684586092e-03
1.341378688812255859e-02 9.019288420677185059e-02 9.019288420677186099e-03
1.233935356140136719e-02 8.582539111375808716e-02 8.582539111375809757e-03
1.128542423248291016e-02 9.028494358062744141e-02 9.028494358062744141e-03
1.023209095001220703e-02 6.009794026613235474e-02 6.009794026613235647e-03
9.156107902526855469e-03 8.740089088678359985e-02 8.740089088678361026e-03
8.138895034790039062e-03 9.010640531778335571e-02 9.010640531778335224e-03
7.151842117309570312e-03 1.018797010183334351e-01 1.018797010183334489e-02
6.112813949584960938e-03 4.924722388386726379e-02 4.924722388386726726e-03
5.069136619567871094e-03 9.913711994886398315e-02 9.913711994886399356e-03
4.153370857238769531e-03 4.800996929407119751e-02 4.800996929407119924e-03
3.206133842468261719e-03 1.524150818586349487e-01 1.524150818586349557e-02
2.316474914550781250e-03 7.880968600511550903e-02 7.880968600511550556e-03
1.360535621643066406e-03 8.508405834436416626e-02 8.508405834436417667e-03
3.993511199951171875e-04 1.638638079166412354e-01 1.638638079166412562e-02
-6.754398345947265625e-04 1.304730772972106934e-01 1.304730772972106934e-02
-1.689195632934570312e-03 9.615910798311233521e-02 9.615910798311234908e-03
-2.680540084838867188e-03 1.322328746318817139e-01 1.322328746318817208e-02
-3.631114959716796875e-03 1.361003518104553223e-01 1.361003518104553223e-02
-4.612803459167480469e-03 1.430523395538330078e-01 1.430523395538330078e-02
-5.609393119812011719e-03 1.112772300839424133e-01 1.112772300839424272e-02
-6.598711013793945312e-03 1.193330064415931702e-01 1.193330064415931702e-02
-7.627606391906738281e-03 1.367027759552001953e-01 1.367027759552002023e-02
-8.610486984252929688e-03 1.637760251760482788e-01 1.637760251760482857e-02
-9.544968605041503906e-03 1.418447345495223999e-01 1.418447345495224034e-02
-1.045751571655273438e-02 1.348380744457244873e-01 1.348380744457244873e-02
-1.134467124938964844e-02 1.246576756238937378e-01 1.246576756238937378e-02
-1.219058036804199219e-02 1.155802309513092041e-01 1.155802309513092110e-02
-1.297295093536376953e-02 1.237458735704421997e-01 1.237458735704421997e-02
-1.379966735839843750e-02 1.305303126573562622e-01 1.305303126573562761e-02
-1.455974578857421875e-02 1.353232115507125854e-01 1.353232115507125959e-02
-1.519298553466796875e-02 1.162095814943313599e-01 1.162095814943313668e-02
-1.580214500427246094e-02 1.331303119659423828e-01 1.331303119659423863e-02
-1.630568504333496094e-02 1.280132681131362915e-01 1.280132681131362915e-02
-1.675283908843994141e-02 1.023644208908081055e-01 1.023644208908081055e-02
-1.708531379699707031e-02 1.428999751806259155e-01 1.428999751806259155e-02
-1.738393306732177734e-02 1.546080261468887329e-01 1.546080261468887364e-02
-1.752543449401855469e-02 1.483696699142456055e-01 1.483696699142456055e-02
-1.754820346832275391e-02 1.387283653020858765e-01 1.387283653020858834e-02
-1.754748821258544922e-02 1.294928640127182007e-01 1.294928640127182042e-02
-1.747977733612060547e-02 1.605589240789413452e-01 1.605589240789413383e-02
-1.734435558319091797e-02 1.275391876697540283e-01 1.275391876697540283e-02
-1.711905002593994141e-02 1.365715265274047852e-01 1.365715265274047852e-02
-1.689767837524414062e-02 1.105293259024620056e-01 1.105293259024620056e-02
-1.655483245849609375e-02 1.278115659952163696e-01 1.278115659952163731e-02
-1.623654365539550781e-02 1.619316339492797852e-01 1.619316339492797921e-02
-1.590228080749511719e-02 1.037519574165344238e-01 1.037519574165344377e-02
-1.551294326782226562e-02 1.392029672861099243e-01 1.392029672861099313e-02
-1.517176628112792969e-02 1.791859716176986694e-01 1.791859716176986625e-02
-1.483464241027832031e-02 1.128150373697280884e-01 1.128150373697280918e-02
-1.452255249023437500e-02 1.801851242780685425e-01 1.801851242780685633e-02
-1.423323154449462891e-02 1.212830469012260437e-01 1.212830469012260437e-02
-1.390767097473144531e-02 1.592577695846557617e-01 1.592577695846557687e-02
-1.359391212463378906e-02 1.210559308528900146e-01 1.210559308528900285e-02
-1.336908340454101562e-02 1.453081071376800537e-01 1.453081071376800641e-02
-1.322638988494873047e-02 1.398587822914123535e-01 1.398587822914123570e-02
-1.307499408721923828e-02 1.278512328863143921e-01 1.278512328863144060e-02
-1.293563842773437500e-02 1.442881524562835693e-01 1.442881524562835728e-02
-1.281666755676269531e-02 1.478277742862701416e-01 1.478277742862701451e-02
-1.271653175354003906e-02 1.305197626352310181e-01 1.305197626352310250e-02
-1.265764236450195312e-02 1.474460065364837646e-01 1.474460065364837681e-02
-1.261866092681884766e-02 1.309745460748672485e-01 1.309745460748672555e-02
-1.264727115631103516e-02 1.312703788280487061e-01 1.312703788280487199e-02
-1.267850399017333984e-02 1.377070695161819458e-01 1.377070695161819458e-02
-1.269710063934326172e-02 1.978356689214706421e-01 1.978356689214706698e-02
-1.274037361145019531e-02 1.284085065126419067e-01 1.284085065126419102e-02
-1.281809806823730469e-02 1.595354378223419189e-01 1.595354378223419120e-02
-1.291501522064208984e-02 1.343705654144287109e-01 1.343705654144287248e-02
-1.305341720581054688e-02 1.544741690158843994e-01 1.544741690158844133e-02
-1.324367523193359375e-02 1.190262660384178162e-01 1.190262660384178162e-02
-1.346838474273681641e-02 1.312454193830490112e-01 1.312454193830490251e-02
-1.380169391632080078e-02 1.433580517768859863e-01 1.433580517768860002e-02
-1.409327983856201172e-02 1.822698116302490234e-01 1.822698116302490234e-02
-1.553881168365478516e-02 2.726608216762542725e-01 2.726608216762542794e-02
-1.585853099822998047e-02 1.788980960845947266e-01 1.788980960845947335e-02
-1.615035533905029297e-02 1.093133315443992615e-01 1.093133315443992754e-02
-1.643657684326171875e-02 8.339855074882507324e-02 8.339855074882508365e-03
-1.672291755676269531e-02 6.163140758872032166e-02 6.163140758872032166e-03
-1.701653003692626953e-02 3.704681620001792908e-02 3.704681620001792994e-03
-1.721656322479248047e-02 3.161919489502906799e-02 3.161919489502906973e-03
-1.747417449951171875e-02 1.396612729877233505e-02 1.396612729877233505e-03
-1.769971847534179688e-02 1.505361497402191162e-02 1.505361497402191249e-03
-1.789188385009765625e-02 5.156871397048234940e-03 5.156871397048234723e-04
-1.804661750793457031e-02 8.999547921121120453e-03 8.999547921121121320e-04
-1.845514774322509766e-02 6.398383993655443192e-03 6.398383993655443192e-04
-1.864755153656005859e-02 5.725476425141096115e-03 5.725476425141095898e-04
