9.582791996773289966e-01 1.000000000000000000e+02 0.000000000000000000e+00
9.613718552083080349e-01 1.000000000000000000e+02 0.000000000000000000e+00
9.644632908648099745e-01 1.000000000000000000e+02 0.000000000000000000e+00
9.675534430924223050e-01 1.000000000000000000e+02 0.000000000000000000e+00
9.706422491411349496e-01 1.000000000000000000e+02 0.000000000000000000e+00
9.737296470517329272e-01 1.000000000000000000e+02 0.000000000000000000e+00
9.768155756424166114e-01 1.000000000000000000e+02 0.000000000000000000e+00
9.798999744956596869e-01 1.000000000000000000e+02 0.000000000000000000e+00
9.829827839452884852e-01 1.000000000000000000e+02 0.000000000000000000e+00
9.860639450637900261e-01 1.000000000000000000e+02 0.000000000000000000e+00
9.891433996498339987e-01 1.000000000000000000e+02 0.000000000000000000e+00
9.922405044666159357e-01 1.000000000000000000e+02 0.000000000000000000e+00
9.953351502273226625e-01 1.000000000000000000e+02 0.000000000000000000e+00
9.984267695463514558e-01 1.000000000000000000e+02 0.000000000000000000e+00
1.001514802537939008e+00 2.511119952629855234e+01 1.673963376586024765e+01
1.004598696165724725e+00 2.138605231919495964e+01 1.241289651098509061e+01
1.007677904116617063e+00 1.975631046252319578e+01 1.031725400457424868e+01
1.010751886674397637e+00 1.871769502228172399e+01 8.899209791251408319e+00
1.013820110593175006e+00 1.796314356445194704e+01 7.778817928704508944e+00
1.016882048970804586e+00 1.736352393168948893e+01 6.859273926239028540e+00
1.019937181122378300e+00 1.689596828512094362e+01 6.064376293092174741e+00
1.022984992453874975e+00 1.647883370440116835e+01 5.342111772886268817e+00
1.026024974336069651e+00 1.614173667669764711e+01 4.666952474895549763e+00
1.029056623978773066e+00 1.585785119147177546e+01 4.012266294151543455e+00
1.032079444305487037e+00 1.559970826064885507e+01 3.350676829937123458e+00
1.035092943828536116e+00 1.536771550379300777e+01 2.654040217507100952e+00
1.038076205802027197e+00 1.516213614000040799e+01 1.721537120096924944e+00
1.041049842489828237e+00 1.498355339030198152e+01 8.370239014825073820e-01
1.044013916876082471e+00 1.477428658356446078e+01 0.000000000000000000e+00
1.046968490410598251e+00 1.380226128726774526e+01 0.000000000000000000e+00
1.049913623592437117e+00 1.269682649321981849e+01 0.000000000000000000e+00
1.052849375988696545e+00 1.235410076353931785e+01 0.000000000000000000e+00
1.055775806252819082e+00 1.215882913146844757e+01 0.000000000000000000e+00
1.058692972142439404e+00 1.202255746494926392e+01 0.000000000000000000e+00
1.061600930536789722e+00 1.191566616249314414e+01 0.000000000000000000e+00
1.064499737453669548e+00 1.147166664321000162e+01 0.000000000000000000e+00
1.067389448065998669e+00 1.108433216687053857e+01 0.000000000000000000e+00
1.070270116717961351e+00 1.069288552430599637e+01 0.000000000000000000e+00
1.073141796940758841e+00 1.029686543439690460e+01 0.000000000000000000e+00
1.076004541467974640e+00 9.927765528886068225e+00 0.000000000000000000e+00
1.078858402250573834e+00 9.586355137944684301e+00 0.000000000000000000e+00
1.081702801054747809e+00 9.273379948376401671e+00 0.000000000000000000e+00
1.084538437815887102e+00 8.956902808317153131e+00 0.000000000000000000e+00
1.087365378841338437e+00 8.702802132379476419e+00 0.000000000000000000e+00
1.090183689523969601e+00 5.819713043413113240e+00 0.000000000000000000e+00
1.092993434376704043e+00 3.973312329215943350e+00 0.000000000000000000e+00
1.095794677048903321e+00 3.976500914709779178e+00 0.000000000000000000e+00
1.098587480342350764e+00 2.439884631718284513e+00 0.000000000000000000e+00
1.101371906226863207e+00 2.441848962185064753e+00 0.000000000000000000e+00
1.104148015855531018e+00 2.443814754495279740e+00 0.000000000000000000e+00
1.106915869579602862e+00 2.445781993256323172e+00 0.000000000000000000e+00
1.109675526963021186e+00 5.783254135825591780e-01 0.000000000000000000e+00
1.112427046796622410e+00 5.788284422779480520e-01 0.000000000000000000e+00
1.115170487112008502e+00 5.793316030983521880e-01 0.000000000000000000e+00
1.117905905195099692e+00 5.798349395581994248e-01 0.000000000000000000e+00
1.120633357599377877e+00 5.803384609883555090e-01 0.000000000000000000e+00
1.123352755858459950e+00 5.808422027105281105e-01 0.000000000000000000e+00
1.126064303946560763e+00 5.813461140505140623e-01 0.000000000000000000e+00
1.128768060111556171e+00 5.818501923847952950e-01 0.000000000000000000e+00
1.131464081878660100e+00 5.823544359255844460e-01 0.000000000000000000e+00
1.134152426067086328e+00 5.828588428878661576e-01 0.000000000000000000e+00
