# R-Rs, Density [10^20 m^-3], Err
2.111850978252349798e-02 6.537625938653945923e-02 6.995634175837039948e-03
8.961757793696012442e-03 3.225863277912139893e-01 3.196856752038002014e-02
1.004704856487226294e-02 6.900475919246673584e-02 1.193704116949796277e-03
4.491035747339777728e-03 1.183833479881286621e-01 1.302786543965339661e-02
-9.453956318434819650e-03 3.614600971341133118e-01 1.771525503549448988e-01
-1.146529218990055554e-02 3.477467000484466553e-01 4.612326994538307190e-02
-1.857286603240138056e-02 3.821340302626292096e-01 2.620654461517636646e-02
-2.396147992674535487e-02 4.253067572911580219e-01 1.853791788360667145e-02
-2.961384842648651095e-02 4.444037973880767822e-01 1.698785623954497323e-02
-3.550461167768292903e-02 4.620624383290608539e-01 3.419577741024760337e-02
-4.160719034962512275e-02 5.496871471405029297e-01 3.512731088375615346e-02
-4.789605086572756854e-02 5.531751215457916260e-01 6.510474695482332264e-02
-5.380746620748744213e-02 5.862360099951425818e-01 8.756355318652701836e-02
-6.039800752216151203e-02 6.571492751439412805e-01 1.115756724481845596e-01
-6.712213549968715220e-02 6.905304193496704102e-01 9.757142949464063519e-02
-8.151174156734275478e-02 7.665799657503763465e-01 1.226017794777153891e-01
-8.858009309887071581e-02 8.157656590143839148e-01 1.681088399678023759e-01
-9.574496317853053995e-02 8.722188075383504602e-01 1.470145850112660468e-01
-1.029992775565401475e-01 9.701828559239705774e-01 1.155031633454313422e-01
-1.103404046659726134e-01 9.732229709625244141e-01 1.789230467632306754e-01
-1.174554909826664995e-01 1.018444518248240227e+00 2.242931074881566456e-01
-1.319159749449934083e-01 1.137278517087300544e+00 2.453980705971256504e-01
-1.389420549240204528e-01 1.148534297943115234e+00 3.431534721498530338e-01
-1.460402538764949965e-01 1.150346477826436287e+00 3.969003011360812683e-01
-1.535403126977463728e-01 8.989137609799703332e-01 1.680713485908474358e-01
-1.611236415184258419e-01 1.221181750297546387e+00 4.445380482951242218e-01
-1.684545851180679898e-01 1.224256138006846184e+00 4.630033234619710392e-01
-1.758588307735742262e-01 1.267685373624165779e+00 5.111733482119056315e-01
-1.836643756133277128e-01 1.252086559931437248e+00 4.869815026186840035e-01
-1.900401524315187274e-01 1.350817243258158440e+00 5.534283033944694674e-01
-1.921798003804876531e-01 1.353019674619038826e+00 5.855528200285629037e-01
-1.849039904428592118e-01 1.322794914245605469e+00 5.420622726249105794e-01
-1.777061410732438951e-01 1.352318743864695305e+00 4.895868347615795479e-01
-1.701160111139040643e-01 1.293583790461222405e+00 4.349481826634324366e-01
-1.627852011338417615e-01 1.172074377536773682e+00 5.164343542295658507e-01
-1.549758705327618502e-01 1.280617495377858406e+00 3.870794546315608486e-01
-1.470930837156668725e-01 1.247299094994862800e+00 3.662579815651777482e-01
-1.392317070774575782e-01 1.210394541422526116e+00 2.851926685171878861e-01
-1.317298260621675432e-01 1.166556219259897942e+00 2.345558102945258239e-01
-1.239059451693943492e-01 1.038209299246470207e+00 2.865748576822354510e-01
-1.160992062810831671e-01 9.952378670374552039e-01 2.948826299493907399e-01
-1.076333611832853698e-01 9.268016417821248742e-01 2.664072196430380401e-01
-9.952667253635627542e-02 8.340201576550801965e-01 2.405999240005781137e-01
-9.144058960850753870e-02 8.246151804924011230e-01 2.389009735052993466e-01
-8.337946015895725260e-02 8.143423000971475867e-01 2.334758367070961238e-01
-7.534788289709992704e-02 6.887627343336740759e-01 1.876848023483535799e-01
-6.735186400701254072e-02 6.586046318213144568e-01 1.674564141934381523e-01
-5.940304172853827502e-02 6.366476813952127722e-01 1.127986141328596592e-01
-5.347567039935374744e-02 6.040022174517313269e-01 8.816979509370652390e-02
-4.954397949432287618e-02 5.765159130096435547e-01 8.098332338346807269e-02
-4.563193571872692367e-02 5.276835362116495398e-01 8.149767826387584180e-02
-4.109525501327127017e-02 4.962291320164998187e-01 4.288701263724543911e-02
-3.723246203866570347e-02 4.691665768623352051e-01 4.333327141379238884e-02
-3.307965396680945247e-02 4.491605361302693500e-01 1.926903772081717606e-02
-2.896567264953953114e-02 4.861504534880320416e-01 2.558383760012336583e-02
-2.520648582623619127e-02 4.544750750064849854e-01 4.539292988209121110e-02
-2.148608524715966972e-02 4.475651681423187256e-01 3.010838433710803438e-02
-1.780795668918710994e-02 4.203123052914937152e-01 6.546291129365282291e-02
-1.417649106513496626e-02 4.193869332472483502e-01 7.676294100754510463e-02
-1.059670901093578976e-02 3.530832628409067975e-01 3.186981805215993030e-02
-7.075018362036500363e-03 3.379557728767395020e-01 4.266990585926280083e-02
-3.621852693210581009e-03 2.598730027675628662e-01 6.012259006144028001e-02
2.369488086895188417e-04 1.462315693497657776e-01 2.485341704770718460e-02
3.497161933833314862e-03 1.021691504865884781e-01 5.800256404349923151e-02
6.135343611296084632e-03 7.923121005296707153e-02 8.099866099655628204e-03
9.221064859715522033e-03 2.750267274677753448e-02 4.999999888241291046e-03
1.320956421486041421e-02 3.868333622813224792e-02 5.756824743002653122e-03
1.515382607272020010e-02 4.498644173145294189e-02 5.445361603051424026e-03
1.844313750218118386e-02 2.873950302600860596e-01 4.737052321434020996e-02
3.104195504225693014e-02 2.868615929037332535e-02 8.354368068164653646e-03
3.726865927301781234e-02 6.762136705219745636e-03 4.999999888241291046e-03
4.277051052410629772e-02 2.961463294923305511e-02 4.999999888241291046e-03
4.865959016002396886e-02 7.442905567586421967e-03 4.999999888241291046e-03
3.619289392050206722e-02 5.057921633124351501e-02 5.057921633124351501e-03
3.719329859048148279e-02 3.663657233119010925e-02 3.663657233119010925e-03
3.831005148903865454e-02 3.962492570281028748e-02 3.962492570281028748e-03
