# R-Rs, Density [10^20 m^-3], Err
7.395315437300986616e-03 4.048105329275131226e-02 8.065403327270872363e-03
1.119356437391250125e-03 8.232829719781875610e-02 1.269015099037009396e-02
-5.953766998544773870e-03 1.233707716067631993e-01 1.927748201960308161e-02
-1.289801087583808403e-02 1.598616242408752441e-01 7.467040329013271797e-03
-2.054507725962517739e-02 1.698160866896311350e-01 6.526080994286429307e-03
-2.837708016185014337e-02 2.158041596412658691e-01 5.068223476431852476e-03
-3.637510349040007362e-02 1.911352351307868958e-01 8.080532159472535517e-03
-4.452401208860190529e-02 2.193302909533182687e-01 1.446042151031863565e-02
-5.280607926720581879e-02 2.576306387782096863e-01 1.583598182829654838e-02
-6.107460383226226419e-02 2.572609285513560162e-01 1.727893877959834831e-02
-6.970770158729622246e-02 2.946334729592005597e-01 1.630513660695664946e-02
-7.830287168522453989e-02 3.053177396456400738e-01 1.223688637034201117e-02
-8.625338200935117605e-02 3.264316121737162457e-01 1.561503993573731992e-02
-9.499478427328056362e-02 3.418044745922088623e-01 8.883778302925917150e-03
-1.037973928019009229e-01 3.376411547263463153e-01 1.346390065198479515e-02
-1.133896748247463782e-01 2.952826470136642456e-01 7.721602810566582757e-03
-1.222848027715777164e-01 3.557277768850326538e-01 1.349202002659540336e-02
-1.401338244424076285e-01 3.458929459253947125e-01 1.400756707442708977e-02
-1.490500268144622220e-01 3.480927248795827045e-01 1.887013989581609943e-02
-1.579252153619340460e-01 3.474146475394566669e-01 9.699145034433134457e-03
-1.667075486560350983e-01 3.456849306821823120e-01 1.628304955557257835e-02
-1.747866569052189956e-01 3.469304889440536499e-01 6.734992228190783518e-03
-1.822342501884643973e-01 3.493751684824625836e-01 2.051076270986908548e-02
-1.899371794380494416e-01 3.546086400747299194e-01 1.761739226558354035e-02
-1.953377772722868499e-01 3.398892233769099103e-01 1.782293110464413036e-02
-1.991616853415081323e-01 3.406089295943577899e-01 1.714218113697190196e-02
-1.985685322405309483e-01 3.454333593448002948e-01 1.960681447238891290e-02
-1.943650543083523807e-01 3.481802046298980713e-01 1.856288752974349227e-02
-1.875313616237579417e-01 3.336483190457026349e-01 1.799324416420801376e-02
-1.803514849511608231e-01 3.437676032384236469e-01 2.083062340799511636e-02
-1.734698880869124382e-01 3.511047313610712872e-01 1.947813147541065104e-02
-1.657071573234391026e-01 3.428509384393692017e-01 1.355409276394642197e-02
-1.578479893761078889e-01 3.414181868235270367e-01 1.861999644411722887e-02
-1.499502639388984315e-01 3.447800030310948505e-01 2.040523214665115534e-02
-1.427709035262458848e-01 3.400663385788599835e-01 2.365950877896749044e-02
-1.341802600326381656e-01 3.325613836447398053e-01 2.482848498833079356e-02
-1.263492759353460615e-01 3.305395444234212055e-01 1.961664899206721699e-02
-1.185740696410738648e-01 3.298182239135106220e-01 2.569361702326963467e-02
-1.108659089386362373e-01 3.287179221709569110e-01 1.952425323472305185e-02
-1.025462872171937212e-01 3.318826705217361450e-01 1.319864932712149636e-02
-9.501150496989207994e-02 3.172385096549987793e-01 1.799327113476495432e-02
-8.690343992362037362e-02 3.219927996397018433e-01 1.137821685049433817e-02
-7.892395738923574378e-02 3.172380129496256695e-01 8.929607163167759681e-03
-7.108555073638078703e-02 2.843973437945048199e-01 1.498752653413958948e-02
-6.340199139335722656e-02 2.954625735680262433e-01 1.118494462145198411e-02
-5.588710422149834045e-02 2.918227811654408588e-01 1.000204070458407361e-02
-4.855576688100682325e-02 2.457347015539805002e-01 9.768799371535562617e-03
-3.451400684034777733e-02 2.205759088198343820e-01 1.338674146157248744e-02
-2.948684271151602587e-02 2.119847983121871948e-01 1.721013152922886910e-02
-2.567541547987128858e-02 2.070199772715568542e-01 1.676749176821970555e-02
-2.247995746351860724e-02 1.967919617891311646e-01 7.879792988575773371e-03
-1.935315117417135689e-02 1.636495788892110281e-01 1.627466573774871347e-02
-1.629780154245907831e-02 1.670227522651354379e-01 1.580055912858491576e-02
-1.282708159891332578e-02 1.600432445605595999e-01 1.618541590581812697e-02
-9.936082372356880299e-03 1.447580705086390085e-01 1.484562199577312523e-02
-7.126845975053752724e-03 1.411409998933474130e-01 1.584691331015861127e-02
-4.403518528971028800e-03 1.264165379106998444e-01 1.459950721392727982e-02
-1.769143944863271756e-03 1.016534554461638179e-01 7.360168787860021412e-03
7.731548432823309724e-04 8.568139746785163879e-02 2.989255330045310216e-03
3.220145290749210076e-03 7.318555439511935379e-02 1.144726009611106259e-02
5.570729703266996680e-03 5.467567220330238342e-02 8.889514351081673552e-03
6.959315228452833679e-03 5.071821063756942749e-02 8.597957096222382802e-05
9.568238302172682452e-03 4.901034012436866760e-02 4.999999888241291046e-03
4.132747650146484375e-02 6.659370847046375275e-03 6.659370847046375275e-04
3.934311866760253906e-02 5.064931698143482208e-03 5.064931698143482425e-04
3.719902038574218750e-02 7.843175902962684631e-03 7.843175902962685499e-04
3.518784046173095703e-02 1.030815392732620239e-02 1.030815392732620326e-03
3.423595428466796875e-02 2.149231266230344772e-03 2.149231266230344881e-04
3.330528736114501953e-02 7.324277888983488083e-03 7.324277888983488950e-04
3.234970569610595703e-02 2.712400862947106361e-03 2.712400862947106470e-04
3.133177757263183594e-02 1.586626842617988586e-02 1.586626842617988673e-03
3.038418292999267578e-02 1.065902411937713623e-02 1.065902411937713623e-03
2.944922447204589844e-02 1.778110675513744354e-02 1.778110675513744398e-03
2.855563163757324219e-02 4.240228328853845596e-03 4.240228328853846030e-04
2.761137485504150391e-02 1.611975580453872681e-02 1.611975580453872767e-03
2.668476104736328125e-02 1.516655460000038147e-02 1.516655460000038277e-03
2.569544315338134766e-02 1.339403353631496429e-02 1.339403353631496560e-03
2.377486228942871094e-02 1.590618491172790527e-02 1.590618491172790614e-03
2.280092239379882812e-02 1.510213129222393036e-02 1.510213129222393036e-03
2.182912826538085938e-02 1.332321204245090485e-02 1.332321204245090485e-03
2.082490921020507812e-02 7.056130096316337585e-03 7.056130096316338236e-04
1.984500885009765625e-02 1.342780236154794693e-02 1.342780236154794736e-03
1.878833770751953125e-02 1.311715878546237946e-02 1.311715878546238119e-03
1.784527301788330078e-02 9.003434330224990845e-03 9.003434330224991062e-04
1.689636707305908203e-02 1.096913684159517288e-02 1.096913684159517375e-03
1.595532894134521484e-02 2.537150494754314423e-02 2.537150494754314509e-03
1.498043537139892578e-02 2.345084585249423981e-02 2.345084585249424328e-03
1.399588584899902344e-02 2.563526481389999390e-02 2.563526481389999476e-03
1.292276382446289062e-02 2.722846157848834991e-02 2.722846157848835252e-03
1.191365718841552734e-02 2.314197085797786713e-02 2.314197085797786886e-03
1.091587543487548828e-02 2.502888441085815430e-02 2.502888441085815430e-03
9.903073310852050781e-03 2.900298871099948883e-02 2.900298871099949057e-03
8.874297142028808594e-03 3.991161286830902100e-02 3.991161286830901926e-03
7.920265197753906250e-03 5.267731472849845886e-02 5.267731472849846407e-03
3.737449645996093750e-03 6.356777250766754150e-02 6.356777250766754671e-03
2.719998359680175781e-03 7.457812130451202393e-02 7.457812130451203086e-03
1.686096191406250000e-03 7.935746759176254272e-02 7.935746759176255313e-03
-6.818771362304687500e-04 1.487307101488113403e-01 1.487307101488113438e-02
-2.036094665527343750e-04 1.348596960306167603e-01 1.348596960306167741e-02
3.069639205932617188e-04 1.290315836668014526e-01 1.290315836668014596e-02
8.622407913208007812e-04 1.196965724229812622e-01 1.196965724229812761e-02
1.409649848937988281e-03 1.280464231967926025e-01 1.280464231967926025e-02
1.931905746459960938e-03 1.126145943999290466e-01 1.126145943999290466e-02
2.458333969116210938e-03 1.031265556812286377e-01 1.031265556812286516e-02
2.951383590698242188e-03 9.154419600963592529e-02 9.154419600963593570e-03
3.426074981689453125e-03 7.087323814630508423e-02 7.087323814630508423e-03
3.938436508178710938e-03 7.731162756681442261e-02 7.731162756681442955e-03
4.407644271850585938e-03 6.400542706251144409e-02 6.400542706251144756e-03
4.903912544250488281e-03 6.287421286106109619e-02 6.287421286106109793e-03
5.402445793151855469e-03 7.315984368324279785e-02 7.315984368324280132e-03
5.908131599426269531e-03 5.860007181763648987e-02 5.860007181763649681e-03
6.393551826477050781e-03 5.121973156929016113e-02 5.121973156929016807e-03
6.879568099975585938e-03 4.636384174227714539e-02 4.636384174227715059e-03
7.426500320434570312e-03 3.865571692585945129e-02 3.865571692585945129e-03
7.905840873718261719e-03 5.028088390827178955e-02 5.028088390827179649e-03
8.351922035217285156e-03 3.807701170444488525e-02 3.807701170444488525e-03
8.792042732238769531e-03 5.182203277945518494e-02 5.182203277945518841e-03
9.277224540710449219e-03 3.925528377294540405e-02 3.925528377294540405e-03
9.784817695617675781e-03 4.503712058067321777e-02 4.503712058067321777e-03
1.030921936035156250e-02 3.446053341031074524e-02 3.446053341031074611e-03
1.086747646331787109e-02 3.180710971355438232e-02 3.180710971355438579e-03
1.146006584167480469e-02 1.744319871068000793e-02 1.744319871068000967e-03
1.207482814788818359e-02 2.878358401358127594e-02 2.878358401358127854e-03
1.274132728576660156e-02 1.422767061740159988e-02 1.422767061740159988e-03
1.347506046295166016e-02 1.976989954710006714e-02 1.976989954710006974e-03
1.423501968383789062e-02 1.666791364550590515e-02 1.666791364550590602e-03
1.499056816101074219e-02 1.776247099041938782e-02 1.776247099041938825e-03
1.569676399230957031e-02 5.992544349282979965e-03 5.992544349282980399e-04
1.647293567657470703e-02 1.905374601483345032e-02 1.905374601483345162e-03
1.713371276855468750e-02 1.129027269780635834e-02 1.129027269780635877e-03
1.782488822937011719e-02 2.194174565374851227e-02 2.194174565374851227e-03
1.858270168304443359e-02 5.965745076537132263e-03 5.965745076537132263e-04
1.938092708587646484e-02 1.484800968319177628e-02 1.484800968319177758e-03
2.023983001708984375e-02 7.912976667284965515e-03 7.912976667284965732e-04
2.109360694885253906e-02 1.511183846741914749e-02 1.511183846741914793e-03
2.286374568939208984e-02 1.502191647887229919e-02 1.502191647887229919e-03
2.371132373809814453e-02 6.675783544778823853e-03 6.675783544778824286e-04
2.458894252777099609e-02 6.921932101249694824e-03 6.921932101249695258e-04
